(1,1)
(2,1)
(2,2)
(2,3)
(2,4)
(2,5)
(3,5)
(4,5)
(5,5)
(6,5)
(7,5)
(7,4)
(7,3)
(8,3)
(9,3)
(9,4)
(9,5)
(9,6)
(9,7)
(8,7)
(7,7)
(6,7)
(5,7)
(4,7)
(3,7)
(3,8)
(3,9)
(3,10)
(4,10)
(5,10)
(5,9)
(6,9)
(7,9)
(8,9)
(9,9)
(10,9)
(10,10)
