2

10 10 10 10 10 10 20 20 20 15 15 15 15 15 15 15 20 30 20 15 15 10 10 10
765DEF 01:01:05:59 enter 17
ABC123 01:01:06:01 enter 17
765DEF 01:01:07:00 exit 95
ABC123 01:01:08:03 exit 95

10 10 10 10 10 10 20 20 20 15 15 15 15 15 15 15 20 30 20 15 15 10 10 10
ABC123 01:01:23:15 enter 17
765DEF 01:01:23:15 enter 17
765DEF 01:01:23:50 exit 61
ABC123 01:02:00:16 exit 95